{
    "key": "group_587fa0a0591a7",
    "title": "Valves",
    "fields": [
        {
            "key": "field_587fa0a54ae31",
            "label": "Valves",
            "name": "valves",
            "type": "repeater",
            "instructions": "",
            "required": 0,
            "conditional_logic": 0,
            "wrapper": {
                "width": "",
                "class": "",
                "id": ""
            },
            "min": 0,
            "max": 0,
            "layout": "block",
            "button_label": "",
            "collapsed": "",
            "sub_fields": [
                {
                    "key": "field_587fa0ff4ae32",
                    "label": "Type",
                    "name": "type",
                    "type": "text",
                    "instructions": "",
                    "required": 0,
                    "conditional_logic": 0,
                    "wrapper": {
                        "width": "",
                        "class": "",
                        "id": ""
                    },
                    "default_value": "",
                    "maxlength": "",
                    "placeholder": "",
                    "prepend": "",
                    "append": ""
                },
                {
                    "key": "field_587fa1084ae33",
                    "label": "Valve",
                    "name": "valve",
                    "type": "repeater",
                    "instructions": "",
                    "required": 0,
                    "conditional_logic": 0,
                    "wrapper": {
                        "width": "",
                        "class": "",
                        "id": ""
                    },
                    "min": 0,
                    "max": 0,
                    "layout": "row",
                    "button_label": "",
                    "collapsed": "",
                    "sub_fields": [
                        {
                            "key": "field_587fa1224ae34",
                            "label": "Item",
                            "name": "item",
                            "type": "text",
                            "instructions": "",
                            "required": 0,
                            "conditional_logic": 0,
                            "wrapper": {
                                "width": "50",
                                "class": "",
                                "id": ""
                            },
                            "default_value": "",
                            "maxlength": "",
                            "placeholder": "",
                            "prepend": "",
                            "append": ""
                        },
                        {
                            "key": "field_587fa1384ae35",
                            "label": "Documents",
                            "name": "documents",
                            "type": "checkbox",
                            "instructions": "",
                            "required": 0,
                            "conditional_logic": 0,
                            "wrapper": {
                                "width": "50",
                                "class": "",
                                "id": ""
                            },
                            "layout": "vertical",
                            "choices": {
                                "pdf": "PDF",
                                "cad": "CAD",
                                "doc": "DOC",
                                "2d": "2D",
                                "3d": "3D",
                                "revit": "Revit"
                            },
                            "default_value": [],
                            "allow_custom": 0,
                            "save_custom": 0,
                            "toggle": 0,
                            "return_format": "value"
                        },
                        {
                            "key": "field_587fa1984ae36",
                            "label": "PDF",
                            "name": "pdf",
                            "type": "file",
                            "instructions": "",
                            "required": 0,
                            "conditional_logic": [
                                [
                                    {
                                        "field": "field_587fa1384ae35",
                                        "operator": "==",
                                        "value": "pdf"
                                    }
                                ]
                            ],
                            "wrapper": {
                                "width": "10",
                                "class": "",
                                "id": ""
                            },
                            "return_format": "url",
                            "library": "all",
                            "min_size": "",
                            "max_size": "",
                            "mime_types": ""
                        },
                        {
                            "key": "field_587fa1c64ae37",
                            "label": "CAD",
                            "name": "cad",
                            "type": "file",
                            "instructions": "",
                            "required": 0,
                            "conditional_logic": [
                                [
                                    {
                                        "field": "field_587fa1384ae35",
                                        "operator": "==",
                                        "value": "cad"
                                    }
                                ]
                            ],
                            "wrapper": {
                                "width": "10",
                                "class": "",
                                "id": ""
                            },
                            "return_format": "url",
                            "library": "all",
                            "min_size": "",
                            "max_size": "",
                            "mime_types": ""
                        },
                        {
                            "key": "field_587fa2054ae38",
                            "label": "DOC",
                            "name": "doc",
                            "type": "file",
                            "instructions": "",
                            "required": 0,
                            "conditional_logic": [
                                [
                                    {
                                        "field": "field_587fa1384ae35",
                                        "operator": "==",
                                        "value": "doc"
                                    }
                                ]
                            ],
                            "wrapper": {
                                "width": "10",
                                "class": "",
                                "id": ""
                            },
                            "return_format": "url",
                            "library": "all",
                            "min_size": "",
                            "max_size": "",
                            "mime_types": ""
                        },
                        {
                            "key": "field_587fa8d86ddfb",
                            "label": "2D",
                            "name": "2d",
                            "type": "file",
                            "instructions": "",
                            "required": 0,
                            "conditional_logic": [
                                [
                                    {
                                        "field": "field_587fa1384ae35",
                                        "operator": "==",
                                        "value": "2d"
                                    }
                                ]
                            ],
                            "wrapper": {
                                "width": "10",
                                "class": "",
                                "id": ""
                            },
                            "return_format": "url",
                            "library": "all",
                            "min_size": "",
                            "max_size": "",
                            "mime_types": ""
                        },
                        {
                            "key": "field_587fa8ea6ddfc",
                            "label": "3D",
                            "name": "3d",
                            "type": "file",
                            "instructions": "",
                            "required": 0,
                            "conditional_logic": [
                                [
                                    {
                                        "field": "field_587fa1384ae35",
                                        "operator": "==",
                                        "value": "3d"
                                    }
                                ]
                            ],
                            "wrapper": {
                                "width": "10",
                                "class": "",
                                "id": ""
                            },
                            "return_format": "url",
                            "library": "all",
                            "min_size": "",
                            "max_size": "",
                            "mime_types": ""
                        },
                        {
                            "key": "field_587fa9046ddfd",
                            "label": "Revit",
                            "name": "revit",
                            "type": "file",
                            "instructions": "",
                            "required": 0,
                            "conditional_logic": [
                                [
                                    {
                                        "field": "field_587fa1384ae35",
                                        "operator": "==",
                                        "value": "revit"
                                    }
                                ]
                            ],
                            "wrapper": {
                                "width": "10",
                                "class": "",
                                "id": ""
                            },
                            "return_format": "url",
                            "library": "all",
                            "min_size": "",
                            "max_size": "",
                            "mime_types": ""
                        }
                    ]
                }
            ]
        }
    ],
    "location": [
        [
            {
                "param": "page",
                "operator": "==",
                "value": "16"
            }
        ]
    ],
    "menu_order": 0,
    "position": "acf_after_title",
    "style": "default",
    "label_placement": "top",
    "instruction_placement": "label",
    "hide_on_screen": "",
    "active": true,
    "description": "",
    "show_in_rest": 0,
    "modified": 1646450950
}